<define-tag pagetitle>DLA-989-1 jython</define-tag>
<define-tag report_date>2017-6-18</define-tag>
<define-tag secrefs>CVE-2016-4000 Bug#864859</define-tag>
<define-tag packages>jython</define-tag>
<define-tag isvulnerable>yes</define-tag>
<define-tag fixed>yes</define-tag>
<define-tag fixed-section>no</define-tag>

#use wml::debian::security

