<define-tag pagetitle>DSA-4376-1 firefox-esr</define-tag>
<define-tag report_date>2019-1-30</define-tag>
<define-tag secrefs>CVE-2018-18500 CVE-2018-18501 CVE-2018-18505</define-tag>
<define-tag packages>firefox-esr</define-tag>
<define-tag isvulnerable>yes</define-tag>
<define-tag fixed>yes</define-tag>
<define-tag fixed-section>no</define-tag>

#use wml::debian::security



</dl>
