<define-tag pagetitle>DLA-521-1 firefox-esr</define-tag>
<define-tag report_date>2016-6-19</define-tag>
<define-tag secrefs>CVE-2016-2818 CVE-2016-2819 CVE-2016-2821 CVE-2016-2822 CVE-2016-2828 CVE-2016-2831</define-tag>
<define-tag packages>firefox-esr</define-tag>
<define-tag isvulnerable>yes</define-tag>
<define-tag fixed>yes</define-tag>
<define-tag fixed-section>no</define-tag>

#use wml::debian::security

